<?xml version="1.0" encoding="UTF-8" standalone="no"?>
<!-- Created with Inkscape (http://www.inkscape.org/) -->

<svg
   width="210mm"
   height="297mm"
   viewBox="0 0 210 297"
   version="1.1"
   id="svg5"
   inkscape:version="1.1.1 (3bf5ae0d25, 2021-09-20)"
   sodipodi:docname="icons.svg"
   inkscape:export-filename="cam.png"
   inkscape:export-xdpi="96"
   inkscape:export-ydpi="96"
   xmlns:inkscape="http://www.inkscape.org/namespaces/inkscape"
   xmlns:sodipodi="http://sodipodi.sourceforge.net/DTD/sodipodi-0.dtd"
   xmlns="http://www.w3.org/2000/svg"
   xmlns:svg="http://www.w3.org/2000/svg">
  <sodipodi:namedview
     id="namedview7"
     pagecolor="#ffffff"
     bordercolor="#111111"
     borderopacity="1"
     inkscape:pageshadow="0"
     inkscape:pageopacity="0"
     inkscape:pagecheckerboard="1"
     inkscape:document-units="mm"
     showgrid="false"
     inkscape:zoom="0.18529742"
     inkscape:cx="758.24046"
     inkscape:cy="-16.190188"
     inkscape:window-width="1284"
     inkscape:window-height="792"
     inkscape:window-x="345"
     inkscape:window-y="96"
     inkscape:window-maximized="0"
     inkscape:current-layer="layer1" />
  <defs
     id="defs2" />
  <g
     inkscape:label="Layer 1"
     inkscape:groupmode="layer"
     id="layer1">
    <path
       style="fill:#ffffff;stroke-width:0.120345"
       d="m 326.75009,23.052818 c -3.09251,-0.0771 -3.29459,-0.0964 -4.18721,-0.40126 -3.34659,-1.14281 -5.87093,-3.61487 -7.06715,-6.92078 -0.36387,-1.00559 -0.37289,-1.08519 -0.50594,-4.46158 -0.18625,-4.7264001 -0.18532,-48.75963 10e-4,-53.44114 0.15099,-3.79117 0.21524,-4.12621 1.14503,-5.97085 1.47108,-2.91854 4.81877,-5.36598 7.80336,-5.70491 1.00605,-0.11425 15.6396,-0.34653 22.38736,-0.35535 l 2.60791,-0.003 1.74543,-2.37682 c 3.16909,-4.315476 4.32856,-5.369518 6.93862,-6.307717 l 0.78224,-0.281181 15.4244,-0.03596 15.4244,-0.03596 1.42393,0.71458 c 2.56413,1.286772 3.19462,1.901797 6.26592,6.112218 l 1.59148,2.18174 8.75761,0.0751 c 10.00382,0.0858 16.45509,0.24978 17.24195,0.43825 0.90484,0.21674 2.91504,1.28943 3.95004,2.10784 1.64184,1.29827 2.87378,3.07067 3.59361,5.17017 0.26244,0.76547 0.30131,1.16672 0.42553,4.3926 0.18596,4.82942 0.18715,48.3147299 10e-4,53.20145 -0.13294,3.49848 -0.14141,3.57596 -0.49801,4.55307 -1.21101,3.31825 -3.77412,5.84801 -7.01941,6.92808 -0.9679,0.32213 -1.09881,0.33378 -4.84582,0.43158 -4.51895,0.11794 -88.6168,0.10915 -93.38787,-0.01 z m 50.02076,-11.07476 c 4.17529,-0.42106 8.2598,-1.86914 11.77649,-4.1751001 3.12694,-2.05039 6.12366,-5.13612 8.0974,-8.33790004 1.72383,-2.79637996 3.45046,-7.64179996 3.30292,-9.26892996 -0.10866,-1.1982799 -0.87376,-2.3067099 -2.03703,-2.9510999 -0.54762,-0.30336 -0.76644,-0.35346 -1.54085,-0.3528 -1.15624,9.7e-4 -2.04797,0.38691 -2.67115,1.156 -0.58844,0.72621 -0.71762,1.01246 -1.29741,2.8747599 -1.0547,3.38775 -2.45065,5.70694 -4.93121,8.19260996 -1.82929,1.83306 -3.22072,2.83756004 -5.30434,3.82927004 -2.83876,1.35113 -4.21591,1.6373 -7.87923,1.6373 -3.06591,0 -4.25787,-0.15297 -6.25584,-0.80285 -2.51138,-0.81688 -4.04832,-1.73514 -7.15696,-4.27596004 -0.03,-0.0245 0.81342,-0.92259996 1.87418,-1.99579996 2.13414,-2.15917 3.17463,-3.2959 3.17463,-3.46827 0,-0.0625 -0.14893,-0.17038 -0.33095,-0.23975 -0.9816,-0.37409 -20.95074,-5.5836799 -21.04432,-5.4900899 -0.0727,0.0727 2.01766,8.3099699 3.73254,14.7082299 1.70862,6.3749 1.80699,6.71583 1.95166,6.76405 0.064,0.0213 1.26887,-1.07214 2.67746,-2.42995 1.40859,-1.35781 2.65191,-2.46773 2.76293,-2.46649 0.11102,0.001 0.74341,0.46472 1.40531,1.02993 3.30615,2.82324 7.33798,4.7801301 11.61331,5.6366301 2.63162,0.52722 5.55164,0.68123 8.08046,0.42621 z m -23.85375,-30.74987 c 0.92354,-0.50235 1.35474,-1.15448 1.94432,-2.94047 0.97028,-2.93925 1.65887,-4.39814 3.0394,-6.43945 0.96112,-1.42115 3.18388,-3.63909 4.62857,-4.61852 2.3545,-1.59623 5.14007,-2.72681 7.61632,-3.09121 1.66011,-0.24431 5.88274,-0.1799 7.27881,0.11102 2.76003,0.57515 6.12577,2.2578 8.33468,4.1668 l 0.88238,0.76258 -2.68204,2.68404 c -1.47513,1.47622 -2.65746,2.70753 -2.62739,2.73625 0.0522,0.0498 14.9129,4.02624 19.40672,5.19282 1.17849,0.30593 2.18992,0.53917 2.24762,0.51831 0.0577,-0.0209 -0.11092,-0.87733 -0.37472,-1.90327 -0.57593,-2.23983 -5.14741,-19.4821 -5.23114,-19.73028 -0.0388,-0.11485 -0.97506,0.74144 -2.74904,2.51411 l -2.69028,2.68828 -1.30586,-1.05046 c -3.26968,-2.6302 -6.49812,-4.34245 -10.22287,-5.42184 -2.47651,-0.71766 -6.35239,-1.04511 -9.52516,-0.80472 -8.09043,0.61299 -15.78853,5.46407 -20.10999,12.67264 -1.73039,2.88645 -3.2678,7.09957 -3.2678,8.9551 0,1.42254 1.08551,2.84941 2.52647,3.32101 0.16591,0.0543 0.73556,0.0836 1.2659,0.065 0.80059,-0.028 1.07472,-0.0938 1.6151,-0.38774 z"
       id="path852"
       inkscape:export-filename="cam.png"
       inkscape:export-xdpi="96"
       inkscape:export-ydpi="96" />
    <path
       style="fill:#ffffff;stroke-width:0.581239"
       d="m 353.3868,157.24385 c -14.56683,-1.49805 -27.39988,-9.09283 -35.15964,-20.80795 -3.57081,-5.39095 -4.62435,-7.66007 -6.34745,-13.67116 l -1.2496,-4.35929 -3.0337,-0.17569 c -1.66854,-0.0966 -3.03371,-0.29415 -3.03371,-0.43895 0,-0.44322 8.26839,-14.80058 8.66469,-15.04551 0.2041,-0.12614 2.36555,3.21502 4.80324,7.42479 l 4.43216,7.65412 -3.1772,0.17549 -3.17721,0.1755 0.39203,1.85884 c 1.20081,5.69379 5.94966,14.26302 10.64315,19.20539 6.73924,7.0966 18.80728,12.58728 27.66577,12.58728 h 2.64615 v 2.9062 c 0,2.41574 -0.17166,2.89049 -1.01717,2.81317 -0.55944,-0.0512 -1.93262,-0.18716 -3.05151,-0.30223 z m -7.9992,-37.82123 0.15247,-21.360547 21.36055,-0.15247 21.36054,-0.15247 v 21.513017 21.51301 h -21.51301 -21.51302 z m 37.50644,0 0.15465,-15.83877 h -15.99342 -15.99342 v 15.99342 15.99342 l 15.83877,-0.15465 15.83877,-0.15465 z M 326.6498,100.69452 V 79.171803 h 21.50585 21.50586 v 8.16919 8.1692 l -2.76089,-0.17716 -2.76089,-0.17715 -0.16724,-5.38577 -0.16725,-5.38576 -15.81683,0.15461 -15.81684,0.15461 -0.15461,15.816007 -0.15461,15.816 5.09514,0.16807 5.09515,0.16808 v 2.61558 2.61558 l -7.70142,0.16218 -7.70142,0.16218 z m 70.24381,9.13366 -4.44544,-7.69743 3.13765,-0.17432 c 1.72571,-0.0959 3.13765,-0.37962 3.13765,-0.63055 0,-0.25093 -0.54703,-2.134167 -1.21563,-4.184977 -3.60311,-11.05185 -11.29509,-19.88197 -21.74332,-24.96053 -5.28661,-2.56966 -10.80064,-4.03098 -15.25753,-4.04353 l -3.05151,-0.009 v -2.92622 -2.92621 l 3.05151,0.34564 c 9.55846,1.08266 16.32871,3.43278 23.40691,8.12511 9.61735,6.37559 16.18422,15.6277 19.38775,27.3155 l 0.95588,3.487437 3.04536,0.17569 c 1.67496,0.0966 3.04537,0.30175 3.04537,0.45583 0,0.37888 -7.30039,13.05707 -8.25235,14.3314 -0.67168,0.89915 -1.25719,0.14684 -5.2023,-6.68425 z"
       id="path1051"
       inkscape:export-filename="screen.png"
       inkscape:export-xdpi="96"
       inkscape:export-ydpi="96" />
  </g>
</svg>
